{
  "project_info": {
    "project_number": "1086614786802",
    "firebase_url": "https://trailers-app-backend.firebaseio.com",
    "project_id": "trailers-app-backend",
    "storage_bucket": "trailers-app-backend.appspot.com"
  },
  "client": [
    {
      "client_info": {
        "mobilesdk_app_id": "1:1086614786802:android:4d59c6fe8c55d747",
        "android_client_info": {
          "package_name": "com.grubot.trailerview.network"
        }
      },
      "oauth_client": [
        {
          "client_id": "1086614786802-bj6l2oljr0vnukuucinsg7hmeqmgpl9f.apps.googleusercontent.com",
          "client_type": 3
        }
      ],
      "api_key": [
        {
          "current_key": "AIzaSyDQjGsHM4ypqRkyFWOVPIuhQK61uMBDcHI"
        }
      ],
      "services": {
        "analytics_service": {
          "status": 1
        },
        "appinvite_service": {
          "status": 1,
          "other_platform_oauth_client": []
        },
        "ads_service": {
          "status": 2
        }
      }
    },
    {
      "client_info": {
        "mobilesdk_app_id": "1:1086614786802:android:6179f2c76e327870",
        "android_client_info": {
          "package_name": "com.grubot.trailerview"
        }
      },
      "oauth_client": [
        {
          "client_id": "1086614786802-73n5psrvs74ne7vef7jjjog7phth9ujk.apps.googleusercontent.com",
          "client_type": 1,
          "android_info": {
            "package_name": "com.grubot.trailerview",
            "certificate_hash": "F05977FB3042BFCD152A4698EC0AF6B19FAA1857"
          }
        },
        {
          "client_id": "1086614786802-j3q52r6s8autroidr3thej5v9mojjr50.apps.googleusercontent.com",
          "client_type": 1,
          "android_info": {
            "package_name": "com.grubot.trailerview",
            "certificate_hash": "759A0CFF57254516989C073F855C6A0E5A61D268"
          }
        },
        {
          "client_id": "1086614786802-bj6l2oljr0vnukuucinsg7hmeqmgpl9f.apps.googleusercontent.com",
          "client_type": 3
        }
      ],
      "api_key": [
        {
          "current_key": "AIzaSyDQjGsHM4ypqRkyFWOVPIuhQK61uMBDcHI"
        }
      ],
      "services": {
        "analytics_service": {
          "status": 1
        },
        "appinvite_service": {
          "status": 2,
          "other_platform_oauth_client": [
            {
              "client_id": "1086614786802-bj6l2oljr0vnukuucinsg7hmeqmgpl9f.apps.googleusercontent.com",
              "client_type": 3
            }
          ]
        },
        "ads_service": {
          "status": 2
        }
      }
    }
  ],
  "configuration_version": "1"
}